%YAML 1.1
%TAG !u! tag:unity3d.com,2011:
--- !u!114 &11400000
MonoBehaviour:
  m_ObjectHideFlags: 0
  m_CorrespondingSourceObject: {fileID: 0}
  m_PrefabInstance: {fileID: 0}
  m_PrefabAsset: {fileID: 0}
  m_GameObject: {fileID: 0}
  m_Enabled: 1
  m_EditorHideFlags: 0
  m_Script: {fileID: 11500000, guid: b4a5b3cc0354d374286a86f7ff52c9d9, type: 3}
  m_Name: Stone
  m_EditorClassIdentifier: 
  Name: Stone
  stackable: 1
  icon: {fileID: 21300000, guid: a2384e8f20ad28d4492d9fc0b21283c8, type: 3}
