%YAML 1.1
%TAG !u! tag:unity3d.com,2011:
--- !u!78 &1
TagManager:
  serializedVersion: 2
  tags: []
  layers:
  - Default
  - TransparentFX
  - Ignore Raycast
  - 
  - Water
  - UI
  - 
  - 
  - Trees
  - Objects
  - Background
  - 
  - 
  - 
  - 
  - 
  - 
  - 
  - 
  - 
  - 
  - 
  - 
  - 
  - 
  - 
  - 
  - 
  - 
  - 
  - 
  - 
  m_SortingLayers:
  - name: Background
    uniqueID: 784826187
    locked: 0
  - name: Default
    uniqueID: 0
    locked: 0
  - name: Game Object
    uniqueID: 3766638427
    locked: 0
  - name: Ground
    uniqueID: 818220815
    locked: 0
  - name: Foreground
    uniqueID: 669642093
    locked: 0
  - name: Tools
    uniqueID: 1351936187
    locked: 0
